{
	"display_objects": 
	[ 
		{
			"name":"candy1", 
			"filename": "assets/images/treats/candy/candy5.png", 
			"width": 166, 
			"height": 256,
			"set":"candy",
			"isTarget":true,
			"xPos": 0.4,
			"yPos": 0.72,
			"rotation":15,
			"type": "image",
		}, 
		{
			"name":"choco1", 
			"filename": "assets/images/treats/choco/choco15.png", 
			"width": 200, 
			"height": 200,
			"set":"choco",
			"isTarget":false,
			"xPos": 0.32,
			"yPos": 0.72,
			"rotation":-5,
			"type": "image",
		}, 
		{
			"name":"cupcake1", 
	"filename":"assets/images/treats/cupcake/cupcake4.png", 
			"width": 256, 
			"height": 256,
			"set":"cupcake",
			"isTarget":false,
			"xPos": 0.55,
			"yPos": 0.72,
			"rotation":0,
			"type": "image",
		}, 
		{
			"name":"donut1", 
			"filename": "assets/images/treats/donut/donut2.png", 
			"width": 256, 
			"height": 256,
			"set":"donut",
			"isTarget":false,
			"xPos": 0.45,
			"yPos": 0.72,
			"rotation":-10,
			"type": "image",
		}, 
		{
			"name":"candy2", 
			"filename": "assets/images/treats/candy/candy2.png", 
			"width": 200, 
			"height": 200,
			"set":"candy",
			"isTarget":true,
			"xPos": 0.7,
			"yPos": 0.72,
			"rotation":-8,
			"type": "image",
		}, 
		{
			"name":"choco2", 
			"filename": "assets/images/treats/choco/choco5.png", 
			"width": 200, 
			"height": 200,
			"set":"choco",
			"isTarget":false,
			"xPos": 0.65,
			"yPos": 0.72,
			"rotation":15,
			"type": "image",
		}, 
				{
			"name":"cupcake2", 
			"filename": "assets/images/treats/cupcake/cupcake2.png", 
			"width": 256, 
			"height": 256,
			"set":"cupcake",
			"isTarget":true,
			"xPos": 0.82,
			"yPos": 0.72,
			"rotation":5,
			"type": "image",
		}, 
				{
			"name":"donut2", 
			"filename": "assets/images/treats/donut/donut1.png", 
			"width": 256, 
			"height": 256,
			"set":"donut",
			"isTarget":false,
			"xPos": 0.75,
			"yPos": 0.72,
			"rotation":0,
			"type": "image",
		}, 
				{
			"name":"choco3", 
			"filename": "assets/images/treats/choco/choco1.png", 
			"width": 200, 
			"height": 200,
			"set":"choco",
			"isTarget":false,
			"xPos": 0.9,
			"yPos": 0.72,
			"rotation":15,
			"type": "image",
		}, 
					{
			"name":"choco4", 
			"filename": "assets/images/treats/choco/choco7.png", 
			"width": 200, 
			"height": 200,
			"set":"choco",
			"isTarget":false,
			"xPos": 0.32,
			"yPos": 0.6,
			"rotation":-5,
			"type": "image",
		}, 
		{
			"name":"candy3", 
			"filename": "assets/images/treats/candy/candy9.png", 
			"width": 166, 
			"height": 256,
			"set":"candy",
			"isTarget":false,
			"xPos": 0.4,
			"yPos": 0.6,
			"rotation":10,
			"type": "image",
		}, 
		{
			"name":"cupcake3", 
			"filename": "assets/images/treats/cupcake/cupcake7.png", 
			"width": 256, 
			"height": 256,
			"set":"cupcake",
			"isTarget":true,
			"xPos": 0.6,
			"yPos": 0.6,
			"rotation":15,
			"type": "image",
		}, 
				{
			"name":"donut3", 
			"filename": "assets/images/treats/donut/donut7.png", 
			"width": 256, 
			"height": 256,
			"set":"donut",
			"isTarget":false,
			"xPos": 0.8,
			"yPos": 0.6,
			"rotation":-10,
			"type": "image",
		}, 
		{
			"name":"candy4", 
			"filename": "assets/images/treats/candy/candy3.png", 
			"width": 200, 
			"height": 200,
			"set":"candy",
			"isTarget":false,
			"xPos": 0.9,
			"yPos": 0.6,
			"rotation":5,
			"type": "image",
		}, 
   	]
}