{
	"display_objects": 
	[ 
		{
			"name":"car1", 
			"filename": "assets/images/toys/car/car5.png", 
			"width": 256, 
			"height": 256,
			"set":"car",
			"isTarget":false,
			"xPos": 0.32,
			"yPos": 0.72,
			"rotation":0,
			"type": "image",
		}, 
		{
			"name":"dolls1", 
			"filename": "assets/images/toys/dolls/dolls5.png", 
			"width": 200, 
			"height": 256,
			"set":"dolls",
			"isTarget":true,
			"xPos": 0.45,
			"yPos": 0.72,
			"rotation":-5,
			"type": "image",
		}, 
		{
			"name":"kids1", 
			"filename": "assets/images/toys/kids/kids1.png", 
			"width": 256, 
			"height": 256,
			"set":"kids",
			"isTarget":true,
			"xPos": 0.55,
			"yPos": 0.72,
			"rotation":0,
			"type": "image",
		}, 
		{
			"name":"robot1", 
			"filename": "assets/images/toys/robot/robot1.png", 
			"width": 202, 
			"height": 256,
			"set":"robot",
			"isTarget":false,
			"xPos": 0.4,
			"yPos": 0.72,
			"rotation":-10,
			"type": "image",
		}, 
		{
			"name":"rocket1", 
			"filename": "assets/images/toys/rocket/rocket1.png", 
			"width": 256, 
			"height": 256,
			"set":"rocket",
			"isTarget":false,
			"xPos": 0.7,
			"yPos": 0.72,
			"rotation":-8,
			"type": "image",
		}, 
		{
			"name":"wrestler1", 
			"filename": "assets/images/toys/wrestler/wrestler5.png", 
			"width": 200, 
			"height": 200,
			"set":"wrestler",
			"isTarget":true,
			"xPos": 0.65,
			"yPos": 0.72,
			"rotation":15,
			"type": "image",
		}, 
		{
			"name":"car2", 
			"filename": "assets/images/toys/car/car1.png", 
			"width": 256, 
			"height": 256,
			"set":"car",
			"isTarget":false,
			"xPos": 0.75,
			"yPos": 0.72,
			"rotation":5,
			"type": "image",
		}, 
				{
			"name":"robot2", 
			"filename": "assets/images/toys/robot/robot3.png", 
			"width": 202, 
			"height": 256,
			"set":"true",
			"isTarget":false,
			"xPos": 0.9,
			"yPos": 0.72,
			"rotation":0,
			"type": "image",
		}, 
		{
			"name":"kids2", 
			"filename": "assets/images/toys/kids/kids3.png", 
			"width": 256, 
			"height": 256,
			"set":"kids",
			"isTarget":false,
			"xPos": 0.82,
			"yPos": 0.72,
			"rotation":15,
			"type": "image",
		}, 
		{
			"name":"rocket2", 
			"filename": "assets/images/toys/rocket/rocket1.png", 
			"width": 256, 
			"height": 256,
			"set":"rocket",
			"isTarget":false,
			"xPos": 0.3,
			"yPos": 0.63,
			"rotation":-10,
			"type": "image",
		}, 
		{
			"name":"kids3", 
			"filename": "assets/images/toys/kids/kids4.png", 
			"width": 256, 
			"height": 256,
			"set":"kids",
			"isTarget":false,
			"xPos": 0.45,
			"yPos": 0.6,
			"rotation":-10,
			"type": "image",
		}, 
		{
			"name":"robot3", 
			"filename": "assets/images/toys/robot/robot5.png", 
			"width": 256, 
			"height": 256,
			"set":"robot",
			"isTarget":false,
			"xPos": 0.8,
			"yPos": 0.6,
			"rotation":10,
			"type": "image",
		}, 
		{
			"name":"car3", 
			"filename": "assets/images/toys/car/car7.png", 
			"width": 256, 
			"height": 256,
			"set":"car",
			"isTarget":false,
			"xPos": 0.6,
			"yPos": 0.6,
			"rotation":0,
			"type": "image",
		}, 
		{
			"name":"wrestler2", 
			"filename": "assets/images/toys/wrestler/wrestler4.png", 
			"width": 200, 
			"height": 200,
			"set":"wrestler",
			"isTarget":false,
			"xPos": 0.9,
			"yPos": 0.6,
			"rotation":-10,
			"type": "image",
		}, 
   	]
}
