{
	"display_objects": 
	[ 
		{
			"name":"car1", 
			"filename": "assets/images/toys/car/car4.png", 
			"width": 256, 
			"height": 256,
			"set":"car",
			"isTarget":false,
			"xPos": 0.32,
			"yPos": 0.72,
			"rotation":0,
			"type": "image",
		}, 
		{
			"name":"dolls1", 
			"filename": "assets/images/toys/dolls/dolls4.png", 
			"width": 200, 
			"height": 256,
			"set":"dolls",
			"isTarget":true,
			"xPos": 0.4,
			"yPos": 0.72,
			"rotation":-5,
			"type": "image",
		}, 
		{
			"name":"kids1", 
			"filename": "assets/images/toys/kids/kids4.png", 
			"width": 256, 
			"height": 256,
			"set":"kids",
			"isTarget":false,
			"xPos": 0.45,
			"yPos": 0.72,
			"rotation":0,
			"type": "image",
		}, 
		{
			"name":"robot1", 
			"filename": "assets/images/toys/robot/robot4.png", 
			"width": 202, 
			"height": 256,
			"set":"robot",
			"isTarget":false,
			"xPos": 0.55,
			"yPos": 0.72,
			"rotation":-10,
			"type": "image",
		}, 
		{
			"name":"rocket1", 
			"filename": "assets/images/toys/rocket/rocket4.png", 
			"width": 256, 
			"height": 256,
			"set":"rocket",
			"isTarget":false,
			"xPos": 0.65,
			"yPos": 0.72,
			"rotation":-8,
			"type": "image",
		}, 
		{
			"name":"wrestler1", 
			"filename": "assets/images/toys/wrestler/wrestler4.png", 
			"width": 200, 
			"height": 200,
			"set":"wrestler",
			"isTarget":false,
			"xPos": 0.7,
			"yPos": 0.72,
			"rotation":15,
			"type": "image",
		}, 
		{
			"name":"car2", 
			"filename": "assets/images/toys/car/car6.png", 
			"width": 256, 
			"height": 256,
			"set":"car",
			"isTarget":false,
			"xPos": 0.75,
			"yPos": 0.72,
			"rotation":5,
			"type": "image",
		}, 
				{
			"name":"robot2", 
			"filename": "assets/images/toys/robot/robot5.png", 
			"width": 202, 
			"height": 256,
			"set":"robot",
			"isTarget":true,
			"xPos": 0.82,
			"yPos": 0.72,
			"rotation":0,
			"type": "image",
		}, 
				{
			"name":"kids2", 
			"filename": "assets/images/toys/kids/kids2.png", 
			"width": 256, 
			"height": 256,
			"set":"kids",
			"isTarget":false,
			"xPos": 0.9,
			"yPos": 0.72,
			"rotation":15,
			"type": "image",
		}, 
   	]
}
