%YAML 1.1
%TAG !u! tag:unity3d.com,2011:
--- !u!687078895 &4343727234628468602
SpriteAtlas:
  m_ObjectHideFlags: 0
  m_CorrespondingSourceObject: {fileID: 0}
  m_PrefabInstance: {fileID: 0}
  m_PrefabAsset: {fileID: 0}
  m_Name: topping_atlas
  m_EditorData:
    serializedVersion: 2
    textureSettings:
      serializedVersion: 2
      anisoLevel: 1
      compressionQuality: 50
      maxTextureSize: 2048
      textureCompression: 0
      filterMode: 1
      generateMipMaps: 0
      readable: 0
      crunchedCompression: 0
      sRGB: 1
    platformSettings:
    - serializedVersion: 3
      m_BuildTarget: Android
      m_MaxTextureSize: 2048
      m_ResizeAlgorithm: 0
      m_TextureFormat: 12
      m_TextureCompression: 1
      m_CompressionQuality: 50
      m_CrunchedCompression: 0
      m_AllowsAlphaSplitting: 0
      m_Overridden: 1
      m_AndroidETC2FallbackOverride: 0
      m_ForceMaximumCompressionQuality_BC6H_BC7: 0
    - serializedVersion: 3
      m_BuildTarget: DefaultTexturePlatform
      m_MaxTextureSize: 2048
      m_ResizeAlgorithm: 0
      m_TextureFormat: -1
      m_TextureCompression: 1
      m_CompressionQuality: 50
      m_CrunchedCompression: 1
      m_AllowsAlphaSplitting: 0
      m_Overridden: 0
      m_AndroidETC2FallbackOverride: 0
      m_ForceMaximumCompressionQuality_BC6H_BC7: 0
    packingSettings:
      serializedVersion: 2
      padding: 4
      blockOffset: 1
      allowAlphaSplitting: 0
      enableRotation: 0
      enableTightPacking: 0
      enableAlphaDilation: 0
    secondaryTextureSettings: {}
    variantMultiplier: 1
    packables:
    - {fileID: 102900000, guid: 9e242dc10d29fb5459a1506568c74ff2, type: 3}
    - {fileID: 102900000, guid: b4e4fb930cfbd481c85bad5517859191, type: 3}
    bindAsDefault: 1
    isAtlasV2: 0
    cachedData: {fileID: 0}
  m_MasterAtlas: {fileID: 0}
  m_PackedSprites:
  - {fileID: 21300000, guid: 6a36bd10760b44b3db7e785f52a7a316, type: 3}
  - {fileID: 21300000, guid: 28e9c020a04d24655b0b37674ce6cdcc, type: 3}
  - {fileID: 21300000, guid: dd25582014f4f314f911367a530e22d6, type: 3}
  - {fileID: 21300000, guid: b49af350348939f4c95db9ac798e2b4a, type: 3}
  - {fileID: 21300000, guid: 323a1b50025ce4dee95fe752aac6f04c, type: 3}
  - {fileID: 21300000, guid: 594ed38018a74489abb81d72e0a16459, type: 3}
  - {fileID: 21300000, guid: 23a4b0a09cbb34006b178d6035d00cc2, type: 3}
  - {fileID: 21300000, guid: 674bb2a0417aa4a2cb18cc3aaae8a74d, type: 3}
  - {fileID: 21300000, guid: 17a914a0c51c49147a7bcf4a6467b6ad, type: 3}
  - {fileID: 21300000, guid: e7a601d0496c14c7ebe1dd66076a8cd8, type: 3}
  - {fileID: 21300000, guid: e24075d0cac4f454a92c33191f644e57, type: 3}
  - {fileID: 21300000, guid: bc7a0d31ccd99014bb7113dcf7152f7a, type: 3}
  - {fileID: 21300000, guid: 24812e31f7633464897b7e97db7c84f4, type: 3}
  - {fileID: 21300000, guid: 098c2c4100b3c4226906f8b029041899, type: 3}
  - {fileID: 21300000, guid: 4ed904917383ac64686927176fc59568, type: 3}
  - {fileID: 21300000, guid: c2b85491b5bf049809b1ffe82ac8acc0, type: 3}
  - {fileID: 21300000, guid: bf42d6c12965f42a3a8767aa89823963, type: 3}
  - {fileID: 21300000, guid: a1dd62d1bb42d84468326bd42e7fc4b8, type: 3}
  - {fileID: 21300000, guid: 567f6af11bee84017ad62ab2f13122f3, type: 3}
  - {fileID: 21300000, guid: ad0e9612d262e4ab2896f0b01c6dc61e, type: 3}
  - {fileID: 21300000, guid: 673e2f220b5f546a4814fb42d7bcff52, type: 3}
  - {fileID: 21300000, guid: 1d641f32f4afe4dccbfdd85459d52134, type: 3}
  - {fileID: 21300000, guid: 11d545423bab54d9da6eb49bccf03004, type: 3}
  - {fileID: 21300000, guid: 0af14d42b7cd14efe9dd5f558dc5af09, type: 3}
  - {fileID: 21300000, guid: 1de310527949a4d42a3025fa9be14db4, type: 3}
  - {fileID: 21300000, guid: 9d42106203a9e430eb623e08c1a5250c, type: 3}
  - {fileID: 21300000, guid: 1434ab62132394c2da9e338ad7f135f4, type: 3}
  - {fileID: 21300000, guid: 9cbf01724ac5d45e7a48bc3a32d11a3d, type: 3}
  - {fileID: 21300000, guid: 5fa15f926701044ff87f641b2e0c95e0, type: 3}
  - {fileID: 21300000, guid: c04f5ab25188d4b76a357e1b81dd5a6a, type: 3}
  - {fileID: 21300000, guid: 113fc8d2140dd43c5bebcc8a1d47dcdc, type: 3}
  - {fileID: 21300000, guid: 67c23ed22a17245ad904f792898f4e0c, type: 3}
  - {fileID: 21300000, guid: b230c5131729871479e1c9e3d51a114c, type: 3}
  - {fileID: 21300000, guid: 85ad845359d6a4eaa82bad3858f311e9, type: 3}
  - {fileID: 21300000, guid: 32952563807ce45d59754e48fd65c8e7, type: 3}
  - {fileID: 21300000, guid: a2910c63465144e89b5fc05630261576, type: 3}
  - {fileID: 21300000, guid: 0b5f0483174ac4205956a13bc32a3179, type: 3}
  - {fileID: 21300000, guid: 53f8c7b388447264d91373f37878c2ea, type: 3}
  - {fileID: 21300000, guid: 9f508fb36d3814208940398399b9cde2, type: 3}
  - {fileID: 21300000, guid: 404aaec389c1ef548a6a99871b43ed0a, type: 3}
  - {fileID: 21300000, guid: 736e92d3d4a774528b14a729f0710f2a, type: 3}
  - {fileID: 21300000, guid: c7b1d3d30f42d485fab86296e767743a, type: 3}
  - {fileID: 21300000, guid: b301cdd319dd242868592b81705936d9, type: 3}
  - {fileID: 21300000, guid: 8ec35d04b5bc645298e6e6f98c9ac6e9, type: 3}
  - {fileID: 21300000, guid: 19f3f01473eea446fa5088d73e29063a, type: 3}
  - {fileID: 21300000, guid: aa850e74094be491d8441d0ac776245f, type: 3}
  - {fileID: 21300000, guid: 85eac4842a3a6450bb105b757baea419, type: 3}
  - {fileID: 21300000, guid: 50dd3884c1a674a9d9add5854367dfc3, type: 3}
  - {fileID: 21300000, guid: dddbd4a4a63414720acc38d515dbd749, type: 3}
  - {fileID: 21300000, guid: eba4bfc4b7d784c7f8abe3a4bb50b773, type: 3}
  - {fileID: 21300000, guid: b305d7d4c45734346a1185f623ceb0b0, type: 3}
  - {fileID: 21300000, guid: fbc876f40fc684d939d62eed512ed912, type: 3}
  - {fileID: 21300000, guid: 0ee2f2153d5034ebc8e832fe17e742a5, type: 3}
  - {fileID: 21300000, guid: a115cea5d6e004ebb8daf30a1f7fa414, type: 3}
  - {fileID: 21300000, guid: 5f9e9ae52dcce7a4d9240d1aafa33211, type: 3}
  - {fileID: 21300000, guid: 1bf58806c4af442c095ca29665f78834, type: 3}
  - {fileID: 21300000, guid: 098cf8460bcf441eaa6573ca68f3316d, type: 3}
  - {fileID: 21300000, guid: 49a71a462df5743138427a6d46389efe, type: 3}
  - {fileID: 21300000, guid: 284dd886e8246483d80895b26bf78181, type: 3}
  - {fileID: 21300000, guid: f80b1296ef22b45c58f4926ab25af788, type: 3}
  - {fileID: 21300000, guid: b60ceca6674524f8dad2bdafd2b5ecf2, type: 3}
  - {fileID: 21300000, guid: a0d6fab68f1d24f8f829eed6c55a82b7, type: 3}
  - {fileID: 21300000, guid: 7617dbb6ec13344beb941872c1974095, type: 3}
  - {fileID: 21300000, guid: 7e49eb874e99d4f14beb3071517c36d2, type: 3}
  - {fileID: 21300000, guid: be67b4a78679942b0ab6ab4ce9746c36, type: 3}
  - {fileID: 21300000, guid: 1c8cfca7127ed4e4499c5568c5a4bc78, type: 3}
  - {fileID: 21300000, guid: 497cd1d7d28ca4904b3405f056a3c50e, type: 3}
  - {fileID: 21300000, guid: 161f9ed7d1b5b4c7781c2e4b47cb0578, type: 3}
  - {fileID: 21300000, guid: 624a34e700a0c48208afd2ad87291e5f, type: 3}
  - {fileID: 21300000, guid: 3124d4f78cf4146989a7ae4929ac502f, type: 3}
  - {fileID: 21300000, guid: d6eb2208bb4d04541b2fa5170f85549e, type: 3}
  - {fileID: 21300000, guid: 76a6f738c238b4414a2eaf693b31e448, type: 3}
  - {fileID: 21300000, guid: 65782b387338a456fb592425b8bacf52, type: 3}
  - {fileID: 21300000, guid: 8cd31748efa904aa0b24c13a8b74caee, type: 3}
  - {fileID: 21300000, guid: b5d49948cccf440d1be3ca548fc46f8a, type: 3}
  - {fileID: 21300000, guid: ccbd2788641214faaa1e54f29280bd3a, type: 3}
  - {fileID: 21300000, guid: b7276fc8cd92043a4aaab32a08354daf, type: 3}
  - {fileID: 21300000, guid: 1fbfdad8d64bf48318d4276efd66312f, type: 3}
  - {fileID: 21300000, guid: 9e9917f81cb9f4cbe8cddf53fb5715ca, type: 3}
  - {fileID: 21300000, guid: 8f5aed498d4814dfb8861fd55a1ccabb, type: 3}
  - {fileID: 21300000, guid: 361654591cce84cdaa14f20e0c2e20fd, type: 3}
  - {fileID: 21300000, guid: 933424694c22349c0984d563aabf26c2, type: 3}
  - {fileID: 21300000, guid: 4b408aa97873c4797b1327bc9480be79, type: 3}
  - {fileID: 21300000, guid: cf62cda9ea43448f091611ad6fd92664, type: 3}
  - {fileID: 21300000, guid: a5104eb98e80541518785eb7506d1f6e, type: 3}
  - {fileID: 21300000, guid: abd149c98cc4348118f07757d68fa2a2, type: 3}
  - {fileID: 21300000, guid: 104887d9a2f094fdb9eda07fa77cc2cd, type: 3}
  - {fileID: 21300000, guid: 683191e963c3649e48d08c66b6466baf, type: 3}
  - {fileID: 21300000, guid: 5882d5e94268d4675a63c245b9786f2b, type: 3}
  - {fileID: 21300000, guid: f7dc48e9e524c47918738d1402afc5a8, type: 3}
  - {fileID: 21300000, guid: c6be230ab04f94c0db22a7b2f3cfd0ae, type: 3}
  - {fileID: 21300000, guid: e3eb591a5680147fe9145f8daa0a41d1, type: 3}
  - {fileID: 21300000, guid: 19e1012aabbfd486ab26d919fffc9c62, type: 3}
  - {fileID: 21300000, guid: bbf9475a018fc42ee926a9cccbcc43eb, type: 3}
  - {fileID: 21300000, guid: fb3eb06a180a54d04ac8292705747c1a, type: 3}
  - {fileID: 21300000, guid: bb4b1d6ad59121942be7b5cf20913d14, type: 3}
  - {fileID: 21300000, guid: 05bc1f6acbd2e40639bf27581892fd7d, type: 3}
  - {fileID: 21300000, guid: b5223f9ae98a6473290741727acaedf6, type: 3}
  - {fileID: 21300000, guid: 246197ea108994ea3917d1384d5af589, type: 3}
  - {fileID: 21300000, guid: 0b919eea65b774b5e821552bca03a63a, type: 3}
  - {fileID: 21300000, guid: 4af440fadc7a85b4f8bc536629fb41b8, type: 3}
  - {fileID: 21300000, guid: 5f7a9efacd6844e44b0bcf032048bbca, type: 3}
  - {fileID: 21300000, guid: 5063150b3d241724080f658afbcccd48, type: 3}
  - {fileID: 21300000, guid: 730ab62b6c23941048c80b2db8bad9f6, type: 3}
  - {fileID: 21300000, guid: 2ca5a39b08cc64f92a924ac88c11e9ae, type: 3}
  - {fileID: 21300000, guid: 420caa9bfc4c74286b4e4fff4a875d2f, type: 3}
  - {fileID: 21300000, guid: 838412ab323e64d009262c3631fdf770, type: 3}
  - {fileID: 21300000, guid: a1fb66bba243897488d734613a6bccfd, type: 3}
  - {fileID: 21300000, guid: e40ceacbf74c44e9099526c67d952085, type: 3}
  - {fileID: 21300000, guid: c6ca97eb70b16410db03cd2f8cb898a4, type: 3}
  - {fileID: 21300000, guid: d63908fb25218447ebf1a23b6d39bf9f, type: 3}
  - {fileID: 21300000, guid: 3dc0642caf38b4f7e87d1c7a1603d5a7, type: 3}
  - {fileID: 21300000, guid: 3119752cbb74d204990a86aa3b543ee9, type: 3}
  - {fileID: 21300000, guid: ec5dad5ce66ad40699f91da04f8c5bf3, type: 3}
  - {fileID: 21300000, guid: a0bbe26c98b7ec742b5bf7a498cb7d4d, type: 3}
  - {fileID: 21300000, guid: 7615bd7cb74fa1846ad8e036f78f09e9, type: 3}
  - {fileID: 21300000, guid: 3fed2c9c9fa38469e8f0a090d992dff7, type: 3}
  - {fileID: 21300000, guid: 55b969ac8a08e4584883d05b5555956d, type: 3}
  - {fileID: 21300000, guid: f489e1dc43b6c42ef835d34ff00760b2, type: 3}
  - {fileID: 21300000, guid: 330892ec937a2410cac102767b0e27b9, type: 3}
  - {fileID: 21300000, guid: e0915bfc5af8c4c7c94ad652ceb8680b, type: 3}
  - {fileID: 21300000, guid: 2686100d9f7e11741bc2bd77f6a2f6fd, type: 3}
  - {fileID: 21300000, guid: d340520d84c2f445b8d6d651836a9773, type: 3}
  - {fileID: 21300000, guid: ded29f0d6018b43faac2e272eda1d4cb, type: 3}
  - {fileID: 21300000, guid: 04be3a1d699d944b8a2e643f91024af7, type: 3}
  - {fileID: 21300000, guid: eed86a2d0adce4261a4901321423c8d9, type: 3}
  - {fileID: 21300000, guid: dec9e43d477380647afb2b91f44f8938, type: 3}
  - {fileID: 21300000, guid: 61ed505d40b8547169639c0fe8751ae0, type: 3}
  - {fileID: 21300000, guid: 6cb5216db8df04dc5bb965981c1e1ff9, type: 3}
  - {fileID: 21300000, guid: 64d628fdb82274aa39806ac511edf757, type: 3}
  - {fileID: 21300000, guid: 0b1e9cfd30d5e48589e6701710609ace, type: 3}
  - {fileID: 21300000, guid: 6ab41efdfa67b8947b9eee570e334b1a, type: 3}
  - {fileID: 21300000, guid: cd4af11e968394735b71fccd8067e398, type: 3}
  - {fileID: 21300000, guid: 4212882e73dec4b38a8a5d63c5eb455b, type: 3}
  - {fileID: 21300000, guid: 7a751b2e3468de442988f40867fff7b3, type: 3}
  - {fileID: 21300000, guid: 0ed98e2e65cda4b1bb63d35522e6bd52, type: 3}
  - {fileID: 21300000, guid: df74da3e909eb45ffabfed83afa66528, type: 3}
  - {fileID: 21300000, guid: 22505f7e14c1240fa858c80a7f85b208, type: 3}
  - {fileID: 21300000, guid: 4c906f7e3aa8243fd874f5c4caceaaff, type: 3}
  - {fileID: 21300000, guid: ba3fa6be580ef4062a4e39da1a5ee80f, type: 3}
  - {fileID: 21300000, guid: 0fd870ce8fc324bc9b58fce3d5115f2c, type: 3}
  - {fileID: 21300000, guid: 5c8af4eec72f74cfca609319c54d8c7b, type: 3}
  - {fileID: 21300000, guid: 372fbdeea391c4b2f8f569d371118deb, type: 3}
  - {fileID: 21300000, guid: 9ee5ff0fa37944ad1ae2dbc97a2e4a92, type: 3}
  - {fileID: 21300000, guid: 0a47971f48cb840679c55d810563f0d9, type: 3}
  - {fileID: 21300000, guid: e047e14f7b09649e195ca5d3ffb4f251, type: 3}
  - {fileID: 21300000, guid: d479e56ff302f4675ba305cb1132b1ab, type: 3}
  - {fileID: 21300000, guid: def9086f2b44346a2841949efab6441a, type: 3}
  - {fileID: 21300000, guid: 4a7f7f6f6c76b41acb6903a9e5edcf8f, type: 3}
  - {fileID: 21300000, guid: 6c0133bf624ab4129acd3b1138ac11c8, type: 3}
  - {fileID: 21300000, guid: e626f3cfeebfc45a5a56ca724762e996, type: 3}
  - {fileID: 21300000, guid: 800ae7cff265f4dd2915dbd2a0e334b6, type: 3}
  m_PackedSpriteNamesToIndex:
  - c 8
  - 25
  - pops 15
  - pops 24
  - 1
  - 23
  - 15
  - pumpkin choco set a
  - pops 9
  - 6
  - c 7
  - pops 23
  - pops 16
  - c 49
  - pops 18
  - 10
  - 28
  - pops 6
  - 22
  - 2
  - 5
  - c 52
  - monster purple
  - skeleton
  - pops 7
  - 33
  - 37
  - monster cookie d
  - 16
  - c 11
  - 15
  - 17
  - pops 11
  - 21
  - c 42
  - 3
  - pumpkin choco set b
  - pops 5
  - 12
  - pops 1
  - 8
  - c 38
  - 34
  - 5
  - monster cookie e
  - 21
  - 18
  - 6
  - 13
  - haunted heads d
  - pumpkin choco set c
  - c 36
  - haunted heads c
  - c 39
  - pops 22
  - 27
  - witch
  - 5
  - 29
  - 12
  - c 35
  - c 31
  - 23
  - 20
  - 14
  - pops 2
  - 4
  - pumpkin polka dots
  - 9
  - c 45
  - c 10
  - 19
  - haunted heads a
  - 40
  - 1
  - 31
  - 6
  - c 37
  - 22
  - 3
  - mummy
  - 38
  - c 47
  - 39
  - monster cookie c
  - haunted heads b
  - monster cookie a
  - c 51
  - 25
  - 9
  - 19
  - pumpkin
  - 35
  - 16
  - 24
  - pops 19
  - c 2
  - 10
  - c 40
  - c 34
  - pops 4
  - 8
  - pops 8
  - 36
  - 4
  - 4
  - pumpkin fondant
  - pops 14
  - 3
  - 17
  - 7
  - c 50
  - pops 12
  - 8
  - pops 3
  - pops 21
  - 11
  - monster cookie b
  - 5
  - 24
  - 18
  - pops 10
  - 7
  - 26
  - pumpkin cookie
  - 6
  - pops 13
  - c 6
  - 10
  - 7
  - 32
  - pops 17
  - haunted house
  - 2
  - pops 20
  - 14
  - c 33
  - 8
  - c 9
  - 1
  - c 32
  - pumpkin choco set d
  - 20
  - 30
  - 13
  - werewolf
  - 2
  - licorice wheel
  - 9
  - 7
  - monster cookie f
  - 11
  m_RenderDataMap: {}
  m_Tag: topping_atlas
  m_IsVariant: 0
