%YAML 1.1
%TAG !u! tag:unity3d.com,2011:
--- !u!114 &11400000
MonoBehaviour:
  m_ObjectHideFlags: 0
  m_CorrespondingSourceObject: {fileID: 0}
  m_PrefabInstance: {fileID: 0}
  m_PrefabAsset: {fileID: 0}
  m_GameObject: {fileID: 0}
  m_Enabled: 1
  m_EditorHideFlags: 0
  m_Script: {fileID: 11500000, guid: a187246822bbb47529482707f3e0eff8, type: 3}
  m_Name: GoogleMobileAdsSettings
  m_EditorClassIdentifier: 
  adMobAndroidAppId: ca-app-pub-2712579443424568~4451553857
  adMobIOSAppId: ca-app-pub-2712579443424568~8031706216
  enableKotlinXCoroutinesPackagingOption: 1
  optimizeInitialization: 0
  optimizeAdLoading: 0
  userTrackingUsageDescription: 
  validateGradleDependencies: 0
