{
	"display_objects": 
	[
      {
        "name":"background", 
        "filename": "assets/images/background/bg1.png", 
        "width": 768, 
        "height": 1024,
        "xPos": 384,
        "yPos": 512,
        "type": "image",
      },
      
      {
        "name":"button_home", 
        "filename": "assets/images/buttons/homebutton.png", 
        "width": 229, 
        "height": 235,
        "xScale":0.5,
        "yScale":0.5,
        "xPos": 80,
        "yPos": 700,
        "type": "one_state_button",
        "dispatch":"home_hit",
      },
      
      {
        "name":"button_stick", 
        "filename": "assets/images/buttons/sticks.png", 
        "width": 749, 
        "height": 189,
        "xScale":0.35,
        "yScale":0.35,
        "xPos": 250,
        "yPos": 70,
        "type": "one_state_button",
        "dispatch":"stick",
      },
      {
        "name":"button_icing", 
        "filename": "assets/images/buttons/icing.png", 
        "width": 749, 
        "height": 189,
        "xScale":0.35,
        "yScale":0.35,
        "xPos": 384,
        "yPos": 150,
        "type": "one_state_button",
        "dispatch":"icing",
      },
      {
        "name":"button_toppings", 
        "filename": "assets/images/buttons/donutbutton_0002_Layer-20.png", 
        "width": 749, 
        "height": 189,
        "xScale":0.35,
        "yScale":0.35,
        "xPos": 537,
        "yPos": 70,
        "type": "one_state_button",
        "dispatch":"toppings",
      },
      {
        "name":"button_extras", 
        "filename": "assets/images/buttons/donutbutton_0003_Layer-19.png", 
        "width": 749, 
        "height": 189,
        "xScale":0.35,
        "yScale":0.35,
        "xPos": 5537,
        "yPos": 150,
        "type": "one_state_button",
        "dispatch":"extras",
      },
       {
        "name":"button_undo", 
        "filename": "assets/images/buttons/undo.png", 
        "width": 229, 
        "height": 235,
        "xScale":0.5,
        "yScale":0.5,
        "xPos": 126,
        "yPos": 800,
        "type": "one_state_button",
        "dispatch":"undo",
      },
      {
        "name":"button_forward", 
        "filename": "assets/images/buttons/forwardarrow.png", 
        "width": 229, 
        "height": 235,
        "xScale":0.5,
        "yScale":0.5,
        "xPos": 672,
        "yPos": 800,
        "type": "one_state_button",
        "dispatch":"forward",
      },
      {
        "name":"button_backward", 
        "filename": "assets/images/buttons/backarrow.png", 
        "width": 229, 
        "height": 235,
        "xScale":0.5,
        "yScale":0.5,
        "xPos": 50,
        "yPos": 5512,
        "type": "one_state_button",
        "dispatch":"back",
      },
      
      {
        "name":"button_gallery", 
        "filename": "assets/images/buttons/freezer.png", 
        "width": 229, 
        "height": 235,
        "xScale":0.5,
        "yScale":0.5,
        "xPos": 282,
        "yPos": 100,
        "type": "one_state_button",
        "dispatch":"gallery",
      },
   	]
}