{
	"display_objects": 
	[
		{
			"name":"sonar", 
			"filename": "assets/images/ripple/obj_rippleFX00", 
			"width": 210, 
			"height": 210,
			"xPos": 360,
			"yPos": 310,
			"delay":1000,
			"xScale":1,
			"yScale":1,
			"loop_count":0,
			"frames":11,
      "style":"bounce",
			"type": "animation",
		},
  ]
}