{
	"display_objects": 
	[
		{
			"name":"store", 
			"untouchedFile": "assets/images/buttons/DDSlots_Button_Store1.png", 
			"touchedFile": "assets/images/buttons/DDSlots_Button_Store2.png", 
			"width": 160, 
			"height": 98,
			"xPos": 0.2,
			"yPos": 0.835,
			"isVisible":true,
			"type": "rect_one_state_button",
			"dispatch":"storeHit",
    },
    
    {
			"name":"bet1", 
			"untouchedFile": "assets/images/buttons/DDSlots_Button_BetOne1.png", 
			"touchedFile": "assets/images/buttons/DDSlots_Button_BetOne2.png", 
			"width": 160, 
			"height": 98,
			"xPos": 0.435,
			"yPos": 0.835,
			"isVisible":true,
			"type": "rect_one_state_button",
			"dispatch":"betHit",
    },
    
    {
			"name":"bet_all", 
			"untouchedFile": "assets/images/buttons/DDSlots_Button_BetMax1.png", 
			"touchedFile": "assets/images/buttons/DDSlots_Button_BetMax2.png", 
			"width": 160, 
			"height": 98,
			"xPos": 0.67,
			"yPos": 0.835,
			"isVisible":true,
			"type": "rect_one_state_button",
			"dispatch":"betHit",
    },
    
    {
			"name":"spin", 
			"untouchedFile": "assets/images/buttons/DDSlots_Button_Spin1.png", 
			"touchedFile": "assets/images/buttons/DDSlots_Button_Spin2.png", 
			"width": 160, 
			"height": 98,
			"xPos": 0.865,
			"yPos": 0.835,
			"isVisible":true,
			"type": "rect_one_state_button",
			"dispatch":"spinHit",
    },
  ]
}