{
	"display_objects": 
	[
		{
			"name":"input_net", 
			"width": 768, 
			"height": 1136,
			"xPos": 0.5,
			"yPos": 0.5,
			"alpha":50,
			"type": "input_net",
		},
		{
			"name":"background", 
			"filename": "assets/images/menu/level_complete.png", 
			"width": 512, 
			"height": 427,
			"xPos": 0.5,
			"yPos": 0.5,
			"type": "image",
		},    
  		{
			"name":"button_next", 
			"width": 220, 
			"height": 60,
			"xPos": 0.5,
			"yPos": 0.435,
			"type": "rect_one_state_button",
			"dispatch":"next_hit",
		},   
		{
			"name":"button_menu", 
			"width": 220, 
			"height": 60,
			"xPos": 0.5,
			"yPos": 0.53,
			"type": "rect_one_state_button",
			"dispatch":"menu_hit",
		},  
		{
			"name":"button_retry", 
			"width": 220, 
			"height": 60,
			"xPos": 0.5,
			"yPos": 0.625,
			"type": "rect_one_state_button",
			"dispatch":"retry_hit",
		},   
   	]
}
