%YAML 1.1
%TAG !u! tag:unity3d.com,2011:
--- !u!74 &7400000
AnimationClip:
  m_ObjectHideFlags: 0
  m_CorrespondingSourceObject: {fileID: 0}
  m_PrefabInstance: {fileID: 0}
  m_PrefabAsset: {fileID: 0}
  m_Name: mixer_hint_animation_loop
  serializedVersion: 6
  m_Legacy: 0
  m_Compressed: 0
  m_UseHighQualityCurve: 1
  m_RotationCurves: []
  m_CompressedRotationCurves: []
  m_EulerCurves: []
  m_PositionCurves: []
  m_ScaleCurves: []
  m_FloatCurves: []
  m_PPtrCurves:
  - curve:
    - time: 0
      value: {fileID: 21300000, guid: 6f50039e3d6944e2dbf4e7515d127bab, type: 3}
    - time: 0.016666668
      value: {fileID: 21300000, guid: 0f243750dc736473d81fb798125ba1e4, type: 3}
    - time: 0.033333335
      value: {fileID: 21300000, guid: 37fba4f2eda7b4e6f9a5d139ef9f23e8, type: 3}
    - time: 0.05
      value: {fileID: 21300000, guid: 6b184e46ff8204ef2903cdd59135ff36, type: 3}
    - time: 0.06666667
      value: {fileID: 21300000, guid: 681be96010b2a419f9af4b2d86489da0, type: 3}
    - time: 0.083333336
      value: {fileID: 21300000, guid: eaf5b8649432b4f33aaa463e82e39ba4, type: 3}
    - time: 0.1
      value: {fileID: 21300000, guid: 70a72c77a8c7e4a02bf211842e0af2d1, type: 3}
    - time: 0.11666667
      value: {fileID: 21300000, guid: 69157217f95a5452fa527746a73e09fe, type: 3}
    - time: 0.13333334
      value: {fileID: 21300000, guid: c304c4fb851774630bf2f4577d2f6fa4, type: 3}
    - time: 0.15
      value: {fileID: 21300000, guid: 377f1c717cb424f7f9d02559e4d4cad0, type: 3}
    - time: 0.16666667
      value: {fileID: 21300000, guid: 87e2b41c1bda144cabc1ba13279e8e0e, type: 3}
    - time: 0.18333334
      value: {fileID: 21300000, guid: 3cec6d5feb66240c5bdc59f3d310fcc8, type: 3}
    - time: 0.2
      value: {fileID: 21300000, guid: 04f88b7fa894846d7910333282a1776e, type: 3}
    - time: 0.21666667
      value: {fileID: 21300000, guid: 4fe8247632cc04693aa83ae8e145ac4c, type: 3}
    attribute: m_Sprite
    path: 
    classID: 114
    script: {fileID: 11500000, guid: fe87c0e1cc204ed48ad3b37840f39efc, type: 3}
  m_SampleRate: 60
  m_WrapMode: 0
  m_Bounds:
    m_Center: {x: 0, y: 0, z: 0}
    m_Extent: {x: 0, y: 0, z: 0}
  m_ClipBindingConstant:
    genericBindings:
    - serializedVersion: 2
      path: 0
      attribute: 2015549526
      script: {fileID: 11500000, guid: fe87c0e1cc204ed48ad3b37840f39efc, type: 3}
      typeID: 114
      customType: 0
      isPPtrCurve: 1
    pptrCurveMapping:
    - {fileID: 21300000, guid: 6f50039e3d6944e2dbf4e7515d127bab, type: 3}
    - {fileID: 21300000, guid: 0f243750dc736473d81fb798125ba1e4, type: 3}
    - {fileID: 21300000, guid: 37fba4f2eda7b4e6f9a5d139ef9f23e8, type: 3}
    - {fileID: 21300000, guid: 6b184e46ff8204ef2903cdd59135ff36, type: 3}
    - {fileID: 21300000, guid: 681be96010b2a419f9af4b2d86489da0, type: 3}
    - {fileID: 21300000, guid: eaf5b8649432b4f33aaa463e82e39ba4, type: 3}
    - {fileID: 21300000, guid: 70a72c77a8c7e4a02bf211842e0af2d1, type: 3}
    - {fileID: 21300000, guid: 69157217f95a5452fa527746a73e09fe, type: 3}
    - {fileID: 21300000, guid: c304c4fb851774630bf2f4577d2f6fa4, type: 3}
    - {fileID: 21300000, guid: 377f1c717cb424f7f9d02559e4d4cad0, type: 3}
    - {fileID: 21300000, guid: 87e2b41c1bda144cabc1ba13279e8e0e, type: 3}
    - {fileID: 21300000, guid: 3cec6d5feb66240c5bdc59f3d310fcc8, type: 3}
    - {fileID: 21300000, guid: 04f88b7fa894846d7910333282a1776e, type: 3}
    - {fileID: 21300000, guid: 4fe8247632cc04693aa83ae8e145ac4c, type: 3}
  m_AnimationClipSettings:
    serializedVersion: 2
    m_AdditiveReferencePoseClip: {fileID: 0}
    m_AdditiveReferencePoseTime: 0
    m_StartTime: 0
    m_StopTime: 0.23333333
    m_OrientationOffsetY: 0
    m_Level: 0
    m_CycleOffset: 0
    m_HasAdditiveReferencePose: 0
    m_LoopTime: 1
    m_LoopBlend: 0
    m_LoopBlendOrientation: 0
    m_LoopBlendPositionY: 0
    m_LoopBlendPositionXZ: 0
    m_KeepOriginalOrientation: 0
    m_KeepOriginalPositionY: 1
    m_KeepOriginalPositionXZ: 0
    m_HeightFromFeet: 0
    m_Mirror: 0
  m_EditorCurves: []
  m_EulerEditorCurves: []
  m_HasGenericRootTransform: 0
  m_HasMotionFloatCurves: 0
  m_Events: []
