{
	"display_objects": 
	[
		{
			"name":"bg",
      "filename":"assets/images/background/menu.png",
			"width": 768, 
			"height": 1136,
			"xPos": 0.5,
			"yPos": 0.5,
			"type": "image"
		},
    
    {
			"name":"logo",
      "filename":"assets/images/buttons/logo.png",
			"width": 653, 
			"height": 481,
      "xScale":0.8,
      "yScale":0.8,
			"xPos": 0.5,
			"yPos": 0.2,
			"type": "image"
		},
  	
    {
			"name":"cake",
			"filename":"assets/images/buttons/makecake.png",
			"width":536,
			"height":216,
      "xScale":0.7,
      "yScale":0.7,
			"xPos":0.5,
			"yPos":0.65,
			"dispatch":"play_hit",
			"type":"one_state_button",
		},
    {
			"name":"pops",
			"filename":"assets/images/buttons/makecakepops.png",
			"width":546,
			"height":193,
      "xScale":0.7,
      "yScale":0.7,
			"xPos":0.5,
			"yPos":0.85,
			"dispatch":"play_hit",
			"type":"one_state_button",
		},
    {
			"name":"bonus",
			"filename":"assets/images/buttons/Bakecake.png",
			"width":263,
			"height":249,
      "xScale":0.65,
      "yScale":0.65,
			"xPos": 672,
			"yPos": 528,
			"dispatch":"play_hit",
			"type":"one_state_button",
		},
		{
			"name":"button_moregames", 
			"filename": "assets/images/buttons/more.png", 
			"width": 277, 
			"height": 258,
      "xScale":0.5,
      "yScale":0.5,
			"xPos": 672,
			"yPos": 940,
			"type": "one_state_button",
			"dispatch":"more_games_hit",
		}, 
		{
			"name":"button_restore", 
			"filename": "assets/images/buttons/restore.png", 
			"width": 178, 
			"height": 181,
      "xScale":0.7,
      "yScale":0.7,
      "xPos":0.12,
			"yPos":0.92,
			"type": "one_state_button",
			"dispatch":"restore_hit",
		}, 
		{
			"name":"button_iap", 
			"filename": "assets/images/buttons/iap.png", 
			"width": 406, 
			"height": 414,
      "xScale":0.3,
      "yScale":0.3,
			"xPos": 99,
			"yPos": 760,
			"type": "one_state_button",
			"dispatch":"iap_hit",
		}, 
    
    {
			"name":"button_gallery", 
			"filename": "assets/images/buttons/freezer.png", 
			"width": 229, 
			"height": 232,
      "xScale":0.55,
      "yScale":0.55,
			"xPos": 672,
			"yPos": 760,
			"type": "one_state_button",
			"dispatch":"gallery_hit",
		}, 
    
    {
			"name":"button_music", 
			"toggleOn": "assets/images/buttons/button_music_on.png", 
			"toggleOff": "assets/images/buttons/button_music_off.png", 
			"width": 100, 
			"height": 100,
			"xPos": 95,
			"yPos": 200,
			"type": "toggle_button",
			"dispatch":"button_music",
		}, 
   	]
}